{
    "0": {
        "image_filename": "why-camelot-01.png",
        "copy": "<strong>Operational experience</strong><br>With a wealth of experience gained from managing the world’s biggest IWG category – we can partner with you to develop & deliver marketing plans to responsibly maximise sales and returns to society."
    },
    "1": {
        "image_filename": "why-camelot-02.png",
        "copy": "<strong>Consumer centric</strong><br>Our games have been built with the player at the heart of the product development cycle. We apply continuous user testing to ensure that games offer the most engaging player experience possible."
    },
    "2": {
        "image_filename": "why-camelot-03.png",
        "copy": "<strong>Responsible</strong><br>We pride ourselves on our commitment to responsible gaming. All of our IWGs are rigorously tested against market leading responsible gaming frameworks, and are easily adaptable to suit different RG requirements."
    }
}